…
Combined Grid Search

We won’t try to visualize the results of this search because the higher dimensionality makes that tricky. It could be done, but we have an idea of how the different parameters change accuracy already, so we’ll just run the combined search and look at the top few candidates. Doing two parameters does work nicely for visualizations though.

## Decision Tree Model Specification (classification)
## 
## Main Arguments:
##   cost_complexity = tune()
##   tree_depth = tune()
##   min_n = tune()
## 
## Computational engine: rpart

## # A tibble: 27 x 3
##    cost_complexity min_n tree_depth
##              <dbl> <int>      <int>
##  1    0.0000000001     2          1
##  2    0.00000316       2          1
##  3    0.1              2          1
##  4    0.0000000001    21          1
##  5    0.00000316      21          1
##  6    0.1             21          1
##  7    0.0000000001    40          1
##  8    0.00000316      40          1
##  9    0.1             40          1
## 10    0.0000000001     2          8
## # ... with 17 more rows
…
